<svg width="12" height="42" xmlns="http://www.w3.org/2000/svg">
  <g fill="#42526E" fill-rule="evenodd">
    <path opacity=".8" d="M0 0h4v42H0z"/>
    <path opacity=".6" d="M8 0h4v42H8z"/>
  </g>
</svg>