<svg width="20" height="48" xmlns="http://www.w3.org/2000/svg" xmlns:xlink="http://www.w3.org/1999/xlink">
  <defs>
    <path id="a" d="M0 0h24v48H0z"/>
  </defs>
  <g fill="none" fill-rule="evenodd">
    <mask id="b" fill="#fff">
      <use xlink:href="#a"/>
    </mask>
    <rect fill="#FFF" opacity=".8" mask="url(#b)" y="12" width="6" height="6" rx="1"/>
    <rect fill="#FFF" opacity=".6" mask="url(#b)" x="6" y="18" width="6" height="6" rx="1"/>
    <rect fill="#FFF" opacity=".8" mask="url(#b)" y="24" width="6" height="6" rx="1"/>
    <rect fill="#FFF" opacity=".5" mask="url(#b)" x="12" y="12" width="6" height="6" rx="1"/>
    <rect fill="#FFF" opacity=".8" mask="url(#b)" width="6" height="6" rx="1"/>
    <rect fill="#FFF" opacity=".6" mask="url(#b)" x="6" y="6" width="6" height="6" rx="1"/>
    <rect fill="#FFF" opacity=".5" mask="url(#b)" x="12" width="6" height="6" rx="1"/>
    <rect fill="#FFF" opacity=".6" mask="url(#b)" x="6" y="30" width="6" height="6" rx="1"/>
    <rect fill="#FFF" opacity=".6" mask="url(#b)" x="6" y="42" width="6" height="6" rx="1"/>
    <rect fill="#FFF" opacity=".5" mask="url(#b)" x="12" y="24" width="6" height="6" rx="1"/>
    <rect fill="#FFF" opacity=".8" mask="url(#b)" y="36" width="6" height="6" rx="1"/>
    <rect fill="#FFF" opacity=".5" mask="url(#b)" x="12" y="36" width="6" height="6" rx="1"/>
  </g>
</svg>